$MeshFormat
2 0 8
$EndMeshFormat
$Nodes
52
2 0 10 0
3 10 0 0
4 100 0 0
5 100 150 0
6 0 150 0
7 4.999999999999856 8.660254037844469 0
8 8.660254037844268 5.000000000000205 0
9 16.92331574486193 0 0
10 25.97563963041269 0 0
11 37.81503633239667 0 0
12 53.29272310188442 0 0
13 73.53340035313576 0 0
14 100 37.50000000000009 0
15 100 74.99999999999946 0
16 100 112.499999999998 0
17 66.666666666666 150 0
18 33.33333333333349 150 0
19 0 121.3452463657114 0
20 0 97.38079424019453 0
21 0 77.34423593626308 0
22 0 60.58564107278116 0
23 0 46.57042411283615 0
24 0 34.85099498064105 0
25 0 25.05100989724369 0
26 0 16.85642272743205 0
27 40.34626905875504 40.68833866478736 0
28 23.14119899690282 23.16540573101892 0
29 51.09365939606232 91.02938105917454 0
30 29.53637075553652 69.31392133527895 0
31 68.3534997237057 61.02678986258964 0
32 69.22503862188202 30.37361139713024 0
33 32.28586172259453 117.5297023690996 0
34 20.13569640202793 43.3243420956306 0
35 11.97335306071671 18.54588660276622 0
36 45.56781007519768 19.94719731134422 0
37 68.42078596659366 117.9976169121031 0
38 24.68803285680788 93.77668138203809 0
39 21.45817263211725 11.1504587803005 0
40 13.00942879730917 31.8502228344255 0
41 78.62188553509375 92.39292859459839 0
42 16.42164481299189 59.36269498139421 0
43 47.81149721493617 59.86130383275729 0
44 34.53106769156047 12.75853806396151 0
45 50.15533400470806 133.0535196638451 0
46 13.68273821760866 10.95824339326195 0
47 61.94993583598184 14.82861999750204 0
48 88.140048583942 18.75503601203961 0
49 16.43281643441 79.42872625699077 0
50 6.350656237674873 15.1177611158508 0
51 15.02443731713536 109.9594166261476 0
52 17.91009164835588 134.2550614509283 0
53 31.78015606175384 53.807377541547 0
$EndNodes
$Elements
106
1 15 2 12 6 6
2 15 2 13 5 5
3 15 2 14 3 3
4 15 2 15 2 2
5 1 3 8 2 1 3 9
6 1 3 8 2 1 9 10
7 1 3 8 2 1 10 11
8 1 3 8 2 1 11 12
9 1 3 8 2 1 12 13
10 1 3 8 2 1 13 4
11 1 3 9 5 1 6 19
12 1 3 9 5 1 19 20
13 1 3 9 5 1 20 21
14 1 3 9 5 1 21 22
15 1 3 9 5 1 22 23
16 1 3 9 5 1 23 24
17 1 3 9 5 1 24 25
18 1 3 9 5 1 25 26
19 1 3 9 5 1 26 2
20 1 3 10 4 1 5 17
21 1 3 10 4 1 17 18
22 1 3 10 4 1 18 6
23 1 3 16 1 1 2 7
24 1 3 16 1 1 7 8
25 1 3 16 1 1 8 3
26 1 3 17 3 1 4 14
27 1 3 17 3 1 14 15
28 1 3 17 3 1 15 16
29 1 3 17 3 1 16 5
30 2 3 11 7 1 32 27 43
31 2 3 11 7 1 23 34 40
32 2 3 11 7 1 28 27 36
33 2 3 11 7 1 31 32 43
34 2 3 11 7 1 27 28 34
35 2 3 11 7 1 24 23 40
36 2 3 11 7 1 35 25 40
37 2 3 11 7 1 5 16 37
38 2 3 11 7 1 15 14 31
39 2 3 11 7 1 9 3 8
40 2 3 11 7 1 34 23 42
41 2 3 11 7 1 29 33 37
42 2 3 11 7 1 17 5 37
43 2 3 11 7 1 27 32 36
44 2 3 11 7 1 31 14 32
45 2 3 11 7 1 9 8 46
46 2 3 11 7 1 25 35 50
47 2 3 11 7 1 29 31 43
48 2 3 11 7 1 30 29 43
49 2 3 11 7 1 22 21 42
50 2 3 11 7 1 28 36 44
51 2 3 11 7 1 42 21 49
52 2 3 11 7 1 31 29 41
53 2 3 11 7 1 37 33 45
54 2 3 11 7 1 25 24 40
55 2 3 11 7 1 23 22 42
56 2 3 11 7 1 29 30 38
57 2 3 11 7 1 26 25 50
58 2 3 11 7 1 33 29 38
59 2 3 11 7 1 12 11 36
60 2 3 11 7 1 15 31 41
61 2 3 11 7 1 34 28 40
62 2 3 11 7 1 39 9 46
63 2 3 11 7 1 36 11 44
64 2 3 11 7 1 10 9 39
65 2 3 11 7 1 10 39 44
66 2 3 11 7 1 16 15 41
67 2 3 11 7 1 29 37 41
68 2 3 11 7 1 2 26 50
69 2 3 11 7 1 36 32 47
70 2 3 11 7 1 7 2 50
71 2 3 11 7 1 11 10 44
72 2 3 11 7 1 20 38 49
73 2 3 11 7 1 21 20 49
74 2 3 11 7 1 46 7 50
75 2 3 11 7 1 8 7 46
76 2 3 11 7 1 37 16 41
77 2 3 11 7 1 28 35 40
78 2 3 11 7 1 12 36 47
79 2 3 11 7 1 45 33 52
80 2 3 11 7 1 18 45 52
81 2 3 11 7 1 32 14 48
82 2 3 11 7 1 35 28 39
83 2 3 11 7 1 27 34 53
84 2 3 11 7 1 13 47 48
85 2 3 11 7 1 39 28 44
86 2 3 11 7 1 38 30 49
87 2 3 11 7 1 38 20 51
88 2 3 11 7 1 47 32 48
89 2 3 11 7 1 17 37 45
90 2 3 11 7 1 30 42 49
91 2 3 11 7 1 18 17 45
92 2 3 11 7 1 35 39 46
93 2 3 11 7 1 13 12 47
94 2 3 11 7 1 20 19 51
95 2 3 11 7 1 19 6 52
96 2 3 11 7 1 4 13 48
97 2 3 11 7 1 34 42 53
98 2 3 11 7 1 33 38 51
99 2 3 11 7 1 30 43 53
100 2 3 11 7 1 33 51 52
101 2 3 11 7 1 51 19 52
102 2 3 11 7 1 42 30 53
103 2 3 11 7 1 43 27 53
104 2 3 11 7 1 35 46 50
105 2 3 11 7 1 14 4 48
106 2 3 11 7 1 6 18 52
$EndElements
